<svg width="10" height="10" viewBox="0 0 10 10" fill="none" xmlns="http://www.w3.org/2000/svg">
<path d="M5 0C2.23864 0 0 2.23864 0 5C0 7.76148 2.23864 10 5 10C7.76148 10 10 7.76148 10 5C10 2.23864 7.76148 0 5 0ZM9.06511 4.54545H5.45455V0.935C7.35068 1.14455 8.85546 2.64943 9.06511 4.54545ZM5 9.09091C2.74068 9.09091 0.909091 7.25932 0.909091 5C0.909091 2.89432 2.50011 1.16102 4.54545 0.935V5.45455H9.06523C8.83898 7.49977 7.10557 9.09091 5 9.09091Z" fill="#03293D"/>
</svg>
